US Air Pollution Report
…
Reads and cleans pollution data set:

#Removes negative values from data
pollution_data <- airquality_data[airquality_data$`O3 Mean` > 0,]

Question #1a/b: Which cities have the highest & lowest recorded ozone pollution levels?

Code

#Sorts highest & lowest 100 ozone samples into a data frame
top_oz_samples <- pollution_data[order(pollution_data$`O3 Mean`, decreasing = TRUE),]
top_oz_cities <- top_oz_samples[1:100, c("State", "City", "O3 Mean")]
top_oz_cities

# A tibble: 100 × 3
   State        City         `O3 Mean`
   <chr>        <chr>            <dbl>
 1 Pennsylvania Norristown      0.107 
 2 California   Arden-Arcade    0.102 
 3 California   Fresno          0.101 
 4 Pennsylvania Bristol         0.0968
 5 Pennsylvania Norristown      0.0957
 6 New York     Holtsville      0.0946
 7 New Jersey   Camden          0.0944
 8 California   Victorville     0.0943
 9 New York     Holtsville      0.0936
10 Virginia     Annandale       0.0926
# ℹ 90 more rows

Code

bottom_oz_samples <- pollution_data[order(pollution_data$`O3 Mean`, decreasing = FALSE),]
bottom_oz_cities <- bottom_oz_samples[1:100, c("State", "City", "O3 Mean")]
bottom_oz_cities

# A tibble: 100 × 3
   State          City              `O3 Mean`
   <chr>          <chr>                 <dbl>
 1 Colorado       Welby              0.000059
 2 California     Vallejo            0.000059
 3 Arkansas       North Little Rock  0.000059
 4 Connecticut    New Haven          0.000059
 5 California     San Jose           0.000083
 6 Virginia       Vinton             0.000111
 7 California     Not in a city      0.000118
 8 New York       New York           0.000118
 9 New York       New York           0.000118
10 North Carolina Charlotte          0.000118
# ℹ 90 more rows
…
[1] "Blue is Alaska the minumum, red is Tennessee the maximum, and purple is California. The dashed line is the median state ozone value."

Question #3c/d: Which states have the highest frequency of recorded zero values for ozone levels, and how do these states’ average ozone levels compare to the average ozone levels across all states?

Code

#Count the zero values recorded for each state
state_zero_count <- airquality_data %>%
  filter(`O3 Mean` == 0) %>%
  group_by(State) %>%
  summarise(zero_count = n()) %>%
  arrange(desc(zero_count))
state_zero_count

# A tibble: 29 × 2
   State         zero_count
   <chr>              <int>
 1 California            50
 2 Pennsylvania          43
 3 Colorado              33
 4 Alaska                28
 5 New York              13
 6 Virginia              12
 7 Oregon                 9
 8 Texas                  9
 9 Missouri               8
10 Massachusetts          7
# ℹ 19 more rows
…
